..............
----------------------------------------------------------------------
Ran 14 tests in 0.003s

OK
Name               Stmts   Miss Branch BrPart  Cover   Missing
--------------------------------------------------------------
Diplomacy.py          71      3     60      4    95%   81, 86, 94, 69->64, 80->81, 85->86, 91->94
TestDiplomacy.py      70      0      0      0   100%
--------------------------------------------------------------
TOTAL                141      3     60      4    97%
